<?xml version="1.0" encoding="utf-8"?>
<!-- Generator: Adobe Illustrator 28.1.0, SVG Export Plug-In . SVG Version: 6.00 Build 0)  -->
<svg version="1.1" id="Layer_1" xmlns="http://www.w3.org/2000/svg" xmlns:xlink="http://www.w3.org/1999/xlink"
	 viewBox="0 0 301.9 88.6" width="302" height="89" style="enable-background:new 0 0 301.9 88.6;" xml:space="preserve">
<style type="text/css">
	.st0{fill:#FFFFFF;}
</style>
<g id="Layer_2_00000138561876937499600240000008359299630523892398_">
	<g id="Layer_3">
		<path class="st0" d="M189.5,57h17.1l7-40c0.9-3.7-1.5-7.5-5.2-8.3c-0.6-0.1-1.2-0.2-1.8-0.2h-13.3l-1.5,8.5h11.7
			c0.7-0.1,1.3,0.4,1.4,1.1c0,0.2,0,0.4-0.1,0.5l-1.1,6.9h-8.6c-4.9,0.2-9.1,3.7-10,8.5l-2.5,14.5c-0.8,3.8,1.6,7.5,5.3,8.3
			C188.4,57,189,57,189.5,57z M191.3,46.9l2-11.2c0.2-1,1-1.7,2-1.7h6.9l-2.6,14.5h-6.9c-0.8,0-1.4-0.6-1.4-1.3
			C191.2,47.1,191.2,47,191.3,46.9L191.3,46.9z"/>
		<path class="st0" d="M117.3,57h8.6l1.5-8.5h-6.9c-0.8,0-1.4-0.6-1.4-1.3c0-0.1,0-0.2,0-0.3l5.3-29.9h8.6l1.5-8.5h-8.6l1.5-8.5
			h-8.5l-8.5,48.5c-0.9,3.7,1.4,7.5,5.2,8.3C116.1,57,116.7,57,117.3,57z"/>
		<path class="st0" d="M139.3,57l6.7-38.4c0.2-0.9,1-1.6,2-1.6h6.9l1.5-8.5h-8.6c-4.9,0.2-9,3.7-10,8.5l-7,40L139.3,57z"/>
		<path class="st0" d="M159.5,57h14.9l1.5-8.5h-13.5c-0.7,0-1.3-0.6-1.3-1.3c0-0.1,0-0.2,0-0.3L163,37h17.1l3.5-20
			c0.9-3.7-1.5-7.5-5.2-8.3c-0.6-0.1-1.2-0.2-1.8-0.2H168c-4.9,0.2-9.1,3.7-10,8.5l-5.5,31.5c-0.8,3.8,1.6,7.5,5.3,8.3
			C158.4,57,159,57,159.5,57z M166.3,18.5c0.2-0.8,0.9-1.4,1.7-1.5h5.6c0.7,0,1.2,0.5,1.3,1.2c0,0.1,0,0.2,0,0.3l-1.7,10h-8.6
			L166.3,18.5z"/>
		<path class="st0" d="M36.5,57h14.9l1.5-8.5H39.5c-0.7,0-1.3-0.6-1.3-1.3c0-0.1,0-0.2,0-0.3L40,37h17.1l3.5-20
			c0.9-3.7-1.5-7.5-5.2-8.3c-0.6-0.1-1.2-0.2-1.8-0.2H45c-4.9,0.2-9.1,3.7-10,8.5l-5.5,31.5c-0.8,3.8,1.6,7.5,5.3,8.3
			C35.4,57,36,57,36.5,57z M43.3,18.5c0.2-0.8,0.9-1.4,1.7-1.5h5.6c0.7,0,1.2,0.5,1.3,1.2c0,0.1,0,0.2,0,0.3l-1.7,10h-8.6L43.3,18.5
			z"/>
		<path class="st0" d="M22.4,58.3L32.5,0h-8.4l-9.8,56c-0.2,1.3-1.3,2.2-2.6,2.3H2.1l-2.1,9h8.5C15,67.3,21.2,64.8,22.4,58.3z"/>
		<path class="st0" d="M220.4,56.8l7-40h6.9c0.7,0,1.3,0.6,1.4,1.3c0,0.1,0,0.2,0,0.3L229,56.8h8.5l7-40h6.9c0.7,0,1.3,0.6,1.4,1.3
			c0,0.1,0,0.2,0,0.3l-6.7,38.3h8.5l7-40c0.9-3.7-1.4-7.5-5.2-8.3c-0.6-0.1-1.2-0.2-1.8-0.2h-34.1l-1.5,8.5l-7,40H220.4z"/>
		<path class="st0" d="M295.5,0h-14c-4.9,0.2-9.1,3.7-10,8.5l-1.4,8.5h7.9l1.5-8.4H292c0.7,0,1.3,0.5,1.4,1.3c0,0.1,0,0.3,0,0.4
			l-1.7,10.2c-6.8,0-24.9-0.9-28.9,18.5l-2,11.9c-0.6,4.2-0.4,6.3,3.5,6.3h3.7c-10.7,13.3-25.6,18.5-42.2,19.8
			c-3.5,0.3-6.9,0.4-10.4,0.4c-13.4,0-26.7-2-39.8-4.7c-22.9-4.8-45.7-10.4-68.6-14.8c-3.4-0.5-6.7-1.1-9.8-1.5
			c1.3-0.4,2.5-1,3.7-1.7c2.2-1.4,4-3.3,5.3-5.6c1.2-2.2,1.9-4.6,1.9-7.1c-0.1-2.5-1-4.9-2.6-6.8l-9.8-11.1
			c-1.1-1.3-1.1-3.2-0.2-4.5c0.9-1.5,2.5-2.5,4.2-2.5h10.8l1.5-8.5h-10.8c-2.8,0-5.5,0.8-7.8,2.3c-2.2,1.4-4.1,3.3-5.4,5.6
			c-1.3,2.1-1.9,4.6-1.9,7.1c0.1,2.5,1,4.9,2.6,6.8l9.9,11c1.1,1.3,1.1,3.2,0.2,4.5c-0.8,1.6-2.4,2.6-4.2,2.6h-13l-1,6
			c-1.4-0.1-2.7-0.1-4.1-0.1l1-5.9h-7c-0.8,0-1.4-0.6-1.4-1.3c0-0.1,0-0.2,0-0.3L74.4,17h8.6l1.5-8.5h-8.6L77.3,0h-8.5l-8.5,48.5
			c-0.6,2.7,0.4,5.4,2.5,7.1C47.1,58.5,28.7,67.4,0,88.6C21.7,76.6,41.5,67,69.2,67c7.7,0,15.4,0.7,23,2
			c19.6,3.1,38.9,7.7,58.3,11.8c18.2,3.9,36.4,7.4,54.8,7.4c6.7,0,13.4-0.5,20.1-1.6c15-2.5,25.9-6.9,37.1-17.7
			c3.5-3.5,6.4-7.6,8.6-12h22l1.5-8.6h-19.8c0.8-2.2,1.4-4.3,1.9-6.6c-1.1,1.9-2.1,4.2-3.4,6.6h-4l1.6-9.7
			c0.7-5.3,6.3-10.1,15.8-10.2l5.4-0.1c4.7,0,6.9-2.3,7.6-8.3l1.9-11.6C302.5,3.8,300.2,0,295.5,0z M270,57.1
			c-2.1,4.2-4.8,8-8.1,11.2c-10.4,9.9-20.7,14.8-36.6,17.4c-6.6,1.1-13.2,1.6-19.9,1.6c-18.2,0-36.2-3.5-54.6-7.4
			c-4.6-1-9.3-2-13.8-3c-14.6-3.2-29.6-6.5-44.5-8.8c-7.7-1.3-15.4-2-23.2-2C47.1,66,29.9,72.2,13,80.6
			c12.3-8.4,22.7-14.4,32.1-18.4c6.1-2.7,12.5-4.7,19.1-5.8c4-0.7,8-1,12-1l0,0c1.3,0,2.7,0,4,0.1c4.5,0.2,9.1,0.8,14,1.5
			c2.6,0.4,5.3,0.8,8.2,1.3l4.3,0.7c13.2,2.5,26.5,5.5,39.4,8.4c9.6,2.1,19.5,4.3,29.2,6.4c15.6,3.2,28.3,4.7,40.1,4.7
			c3.6,0,7.1-0.1,10.5-0.4c19.7-1.6,33.6-8.3,43.3-20.9c0.7-0.9,1.4-1.8,2-2.8c0.3-0.4,0.5-0.8,0.8-1.2
			C271.4,54.4,270.8,55.8,270,57.1z"/>
	</g>
</g>
</svg>
